{
    "gitignore.nix": {
        "branch": "master",
        "description": "Nix functions for filtering local git sources",
        "homepage": "",
        "owner": "hercules-ci",
        "repo": "gitignore.nix",
        "rev": "43e1aa1308018f37118e34d3a9cb4f5e75dc11d5",
        "sha256": "1rlja3ba9s1n0icy3aarwhx9hk1jyfgngzizbn1afwwdlpvdlqw0",
        "type": "tarball",
        "url": "https://github.com/hercules-ci/gitignore.nix/archive/43e1aa1308018f37118e34d3a9cb4f5e75dc11d5.tar.gz",
        "url_template": "https://github.com/<owner>/<repo>/archive/<rev>.tar.gz"
    },
    "nixpkgs": {
        "branch": "nixos-unstable",
        "description": "Nix Packages collection",
        "homepage": null,
        "owner": "NixOS",
        "repo": "nixpkgs",
        "rev": "6c43a3495a11e261e5f41e5d7eda2d71dae1b2fe",
        "sha256": "16f329z831bq7l3wn1dfvbkh95l2gcggdwn6rk3cisdmv2aa3189",
        "type": "tarball",
        "url": "https://github.com/NixOS/nixpkgs/archive/6c43a3495a11e261e5f41e5d7eda2d71dae1b2fe.tar.gz",
        "url_template": "https://github.com/<owner>/<repo>/archive/<rev>.tar.gz"
    }
}
