<?xml version="1.0" encoding="UTF-8" standalone="no"?>
<svg
   xmlns:dc="http://purl.org/dc/elements/1.1/"
   xmlns:cc="http://creativecommons.org/ns#"
   xmlns:rdf="http://www.w3.org/1999/02/22-rdf-syntax-ns#"
   xmlns:svg="http://www.w3.org/2000/svg"
   xmlns="http://www.w3.org/2000/svg"
   xmlns:sodipodi="http://sodipodi.sourceforge.net/DTD/sodipodi-0.dtd"
   xmlns:inkscape="http://www.inkscape.org/namespaces/inkscape"
   inkscape:export-ydpi="392.92001"
   inkscape:export-xdpi="392.92001"
   inkscape:export-filename="/home/datakurre/Work/gitlab/vasara-bpm/vasara/vasara-app/src/static/vasara.svg.png"
   inkscape:version="0.92.4 (5da689c313, 2019-01-14)"
   sodipodi:docname="icon.svg"
   id="svg10"
   height="180"
   width="180"
   version="1.1">
  <sodipodi:namedview
     pagecolor="#002958"
     bordercolor="#666666"
     borderopacity="1"
     objecttolerance="10"
     gridtolerance="10"
     guidetolerance="10"
     inkscape:pageopacity="1"
     inkscape:pageshadow="2"
     inkscape:window-width="1063"
     inkscape:window-height="766"
     id="namedview10"
     showgrid="false"
     fit-margin-top="0"
     fit-margin-left="0"
     fit-margin-right="0"
     fit-margin-bottom="0"
     inkscape:zoom="1.28"
     inkscape:cx="77.203151"
     inkscape:cy="103.39539"
     inkscape:window-x="0"
     inkscape:window-y="0"
     inkscape:window-maximized="0"
     inkscape:current-layer="svg10" />
  <metadata
     id="metadata16">
    <rdf:RDF>
      <cc:Work
         rdf:about="">
        <dc:format>image/svg+xml</dc:format>
        <dc:type
           rdf:resource="http://purl.org/dc/dcmitype/StillImage" />
        <dc:title></dc:title>
      </cc:Work>
    </rdf:RDF>
  </metadata>
  <defs
     id="defs14" />
  <path
     inkscape:connector-curvature="0"
     style="fill:#ffffff;fill-opacity:1;stroke:none;stroke-width:0.35749331;stroke-miterlimit:4;stroke-dasharray:none;stroke-dashoffset:0;stroke-opacity:1"
     d="m 19.999999,62.894714 19.3239,19.407077 18.223021,-18.050369 c 27.719673,29.652619 56.79277,58.235448 84.29783,88.002288 4.13303,4.15075 10.85713,4.17392 15.01881,0.0517 4.16159,-4.12224 4.18481,-10.8288 0.0518,-14.97962 C 127.39251,109.54389 97.779393,81.535991 68.247111,53.652544 L 92.797723,29.334527 58.642745,24.618015 Z"
     id="rect4165-6" />
</svg>
